{
  "name": "@PROJECT_NAME@",
  "version": "@PROJECT_VERSION@",
  "description": "@PROJECT_DESCRIPTION@",
  "main": "@MAIN_BINARY@",
  "browser": "@BROWSER_BINARY@",
  "license": "GPLv3",
  "repository": {
    "type": "git",
    "url": "https://gitlab.com/TpmKranz/reglibjs.git"
  }
}
